<svg width="322" height="14" viewBox="0 0 322 14" fill="none" xmlns="http://www.w3.org/2000/svg">
<path d="M5.698 11.042C4.78333 11.042 3.948 10.8227 3.192 10.384C2.44533 9.94533 1.85267 9.348 1.414 8.592C0.984667 7.836 0.77 7.00533 0.77 6.1C0.77 5.19467 0.984667 4.364 1.414 3.608C1.85267 2.852 2.45 2.25467 3.206 1.816C3.962 1.37733 4.802 1.158 5.726 1.158C6.65 1.158 7.48533 1.37267 8.232 1.802C8.988 2.23133 9.58067 2.824 10.01 3.58C10.4393 4.32667 10.654 5.15733 10.654 6.072C10.654 6.98667 10.4347 7.82667 9.996 8.592C9.55733 9.348 8.96 9.94533 8.204 10.384C7.448 10.8227 6.61267 11.042 5.698 11.042ZM5.698 10.636C6.538 10.636 7.30333 10.4353 7.994 10.034C8.68467 9.62333 9.23067 9.07267 9.632 8.382C10.0333 7.682 10.234 6.912 10.234 6.072C10.234 5.232 10.038 4.47133 9.646 3.79C9.254 3.09933 8.71267 2.558 8.022 2.166C7.34067 1.76467 6.57533 1.564 5.726 1.564C4.87667 1.564 4.10667 1.76467 3.416 2.166C2.72533 2.56733 2.17933 3.118 1.778 3.818C1.386 4.50867 1.19 5.26933 1.19 6.1C1.19 6.93067 1.386 7.696 1.778 8.396C2.17933 9.08667 2.72067 9.63267 3.402 10.034C4.09267 10.4353 4.858 10.636 5.698 10.636ZM5.824 9.026C5.27333 9.026 4.774 8.90467 4.326 8.662C3.88733 8.41 3.542 8.06467 3.29 7.626C3.04733 7.178 2.926 6.66933 2.926 6.1C2.926 5.53067 3.04733 5.02667 3.29 4.588C3.542 4.14 3.88733 3.79467 4.326 3.552C4.774 3.3 5.27333 3.174 5.824 3.174C6.272 3.174 6.68733 3.26267 7.07 3.44C7.45267 3.61733 7.76067 3.86933 7.994 4.196L7.56 4.546C7.35467 4.266 7.098 4.056 6.79 3.916C6.49133 3.776 6.16467 3.706 5.81 3.706C5.37133 3.706 4.97933 3.80867 4.634 4.014C4.28867 4.21 4.01333 4.49 3.808 4.854C3.612 5.218 3.514 5.63333 3.514 6.1C3.514 6.56667 3.612 6.982 3.808 7.346C4.01333 7.71 4.28867 7.99467 4.634 8.2C4.97933 8.396 5.37133 8.494 5.81 8.494C6.16467 8.494 6.49133 8.424 6.79 8.284C7.098 8.144 7.35467 7.934 7.56 7.654L7.994 7.99C7.76067 8.326 7.45267 8.58267 7.07 8.76C6.68733 8.93733 6.272 9.026 5.824 9.026ZM20.8637 11.07C19.9024 11.07 19.0344 10.8553 18.2597 10.426C17.4944 9.99667 16.8877 9.404 16.4397 8.648C16.0011 7.892 15.7817 7.04267 15.7817 6.1C15.7817 5.15733 16.0011 4.308 16.4397 3.552C16.8877 2.796 17.4944 2.20333 18.2597 1.774C19.0344 1.34467 19.9024 1.13 20.8637 1.13C21.5731 1.13 22.2264 1.24667 22.8237 1.48C23.4211 1.704 23.9297 2.04 24.3497 2.488L23.9017 2.95C23.1177 2.17533 22.1144 1.788 20.8917 1.788C20.0704 1.788 19.3237 1.97467 18.6517 2.348C17.9797 2.72133 17.4524 3.23933 17.0697 3.902C16.6871 4.55533 16.4957 5.288 16.4957 6.1C16.4957 6.912 16.6871 7.64933 17.0697 8.312C17.4524 8.96533 17.9797 9.47867 18.6517 9.852C19.3237 10.2253 20.0704 10.412 20.8917 10.412C22.1051 10.412 23.1084 10.02 23.9017 9.236L24.3497 9.698C23.9297 10.146 23.4164 10.4867 22.8097 10.72C22.2124 10.9533 21.5637 11.07 20.8637 11.07ZM29.0314 11.056C28.3407 11.056 27.7154 10.8973 27.1554 10.58C26.6047 10.2627 26.1707 9.824 25.8534 9.264C25.5361 8.69467 25.3774 8.05533 25.3774 7.346C25.3774 6.63667 25.5361 6.002 25.8534 5.442C26.1707 4.87267 26.6047 4.42933 27.1554 4.112C27.7154 3.79467 28.3407 3.636 29.0314 3.636C29.7221 3.636 30.3427 3.79467 30.8934 4.112C31.4534 4.42933 31.8921 4.87267 32.2094 5.442C32.5267 6.002 32.6854 6.63667 32.6854 7.346C32.6854 8.05533 32.5267 8.69467 32.2094 9.264C31.8921 9.824 31.4534 10.2627 30.8934 10.58C30.3427 10.8973 29.7221 11.056 29.0314 11.056ZM29.0314 10.426C29.5914 10.426 30.0907 10.2953 30.5294 10.034C30.9774 9.77267 31.3274 9.40867 31.5794 8.942C31.8407 8.47533 31.9714 7.94333 31.9714 7.346C31.9714 6.74867 31.8407 6.21667 31.5794 5.75C31.3274 5.28333 30.9774 4.91933 30.5294 4.658C30.0907 4.39667 29.5914 4.266 29.0314 4.266C28.4714 4.266 27.9674 4.39667 27.5194 4.658C27.0807 4.91933 26.7307 5.28333 26.4694 5.75C26.2174 6.21667 26.0914 6.74867 26.0914 7.346C26.0914 7.94333 26.2174 8.47533 26.4694 8.942C26.7307 9.40867 27.0807 9.77267 27.5194 10.034C27.9674 10.2953 28.4714 10.426 29.0314 10.426ZM38.525 3.636C39.2064 3.636 39.8224 3.79467 40.373 4.112C40.9237 4.42933 41.353 4.868 41.661 5.428C41.9784 5.988 42.137 6.62733 42.137 7.346C42.137 8.06467 41.9784 8.70867 41.661 9.278C41.353 9.838 40.9237 10.2767 40.373 10.594C39.8224 10.902 39.2064 11.056 38.525 11.056C37.881 11.056 37.2977 10.9067 36.775 10.608C36.2524 10.3 35.8464 9.87533 35.557 9.334V13.716H34.857V3.692H35.529V5.414C35.8184 4.854 36.2244 4.42 36.747 4.112C37.279 3.79467 37.8717 3.636 38.525 3.636ZM38.483 10.426C39.043 10.426 39.547 10.2953 39.995 10.034C40.443 9.77267 40.793 9.40867 41.045 8.942C41.3064 8.47533 41.437 7.94333 41.437 7.346C41.437 6.74867 41.3064 6.21667 41.045 5.75C40.793 5.28333 40.443 4.91933 39.995 4.658C39.547 4.39667 39.043 4.266 38.483 4.266C37.923 4.266 37.419 4.39667 36.971 4.658C36.5324 4.91933 36.1824 5.28333 35.921 5.75C35.669 6.21667 35.543 6.74867 35.543 7.346C35.543 7.94333 35.669 8.47533 35.921 8.942C36.1824 9.40867 36.5324 9.77267 36.971 10.034C37.419 10.2953 37.923 10.426 38.483 10.426ZM49.9652 3.692L46.2132 11.994C45.9332 12.638 45.6066 13.0953 45.2332 13.366C44.8692 13.6367 44.4352 13.772 43.9312 13.772C43.5952 13.772 43.2779 13.716 42.9792 13.604C42.6899 13.492 42.4426 13.3287 42.2372 13.114L42.5872 12.582C42.9606 12.9647 43.4132 13.156 43.9452 13.156C44.2999 13.156 44.6032 13.058 44.8552 12.862C45.1072 12.666 45.3406 12.33 45.5552 11.854L45.9472 10.972L42.6572 3.692H43.3992L46.3252 10.23L49.2512 3.692H49.9652ZM52.1677 5.288C52.3917 4.756 52.7417 4.35 53.2177 4.07C53.6937 3.78067 54.2724 3.636 54.9537 3.636V4.322L54.7857 4.308C53.9737 4.308 53.3391 4.56467 52.8817 5.078C52.4244 5.582 52.1957 6.28667 52.1957 7.192V11H51.4957V3.692H52.1677V5.288ZM56.8824 3.692H57.5824V11H56.8824V3.692ZM57.2324 1.914C57.0738 1.914 56.9384 1.86267 56.8264 1.76C56.7144 1.648 56.6584 1.51267 56.6584 1.354C56.6584 1.19533 56.7144 1.06 56.8264 0.947999C56.9384 0.836 57.0738 0.78 57.2324 0.78C57.3911 0.78 57.5264 0.836 57.6384 0.947999C57.7504 1.05067 57.8064 1.18133 57.8064 1.34C57.8064 1.49867 57.7504 1.634 57.6384 1.746C57.5264 1.858 57.3911 1.914 57.2324 1.914ZM67.1128 3.692V10.216C67.1128 11.4293 66.8188 12.3253 66.2308 12.904C65.6428 13.4827 64.7562 13.772 63.5708 13.772C62.8988 13.772 62.2642 13.6693 61.6668 13.464C61.0695 13.2587 60.5888 12.974 60.2248 12.61L60.6028 12.078C60.9668 12.414 61.4055 12.6753 61.9188 12.862C62.4322 13.0487 62.9782 13.142 63.5568 13.142C64.5275 13.142 65.2462 12.9087 65.7128 12.442C66.1795 11.9847 66.4128 11.2707 66.4128 10.3V9.068C66.1142 9.6 65.6988 10.0107 65.1668 10.3C64.6348 10.5893 64.0375 10.734 63.3748 10.734C62.6935 10.734 62.0728 10.5847 61.5128 10.286C60.9622 9.978 60.5282 9.55333 60.2108 9.012C59.8935 8.47067 59.7348 7.85933 59.7348 7.178C59.7348 6.49667 59.8935 5.88533 60.2108 5.344C60.5282 4.80267 60.9622 4.38267 61.5128 4.084C62.0728 3.78533 62.6935 3.636 63.3748 3.636C64.0468 3.636 64.6535 3.78533 65.1948 4.084C65.7362 4.38267 66.1515 4.80267 66.4408 5.344V3.692H67.1128ZM63.4308 10.104C64.0002 10.104 64.5135 9.98267 64.9708 9.74C65.4282 9.488 65.7828 9.14267 66.0348 8.704C66.2962 8.256 66.4268 7.74733 66.4268 7.178C66.4268 6.60867 66.2962 6.10467 66.0348 5.666C65.7828 5.22733 65.4282 4.88667 64.9708 4.644C64.5135 4.392 64.0002 4.266 63.4308 4.266C62.8615 4.266 62.3482 4.392 61.8908 4.644C61.4428 4.88667 61.0882 5.22733 60.8268 5.666C60.5748 6.10467 60.4488 6.60867 60.4488 7.178C60.4488 7.74733 60.5748 8.256 60.8268 8.704C61.0882 9.14267 61.4428 9.488 61.8908 9.74C62.3482 9.98267 62.8615 10.104 63.4308 10.104ZM73.6458 3.636C74.5605 3.636 75.2838 3.902 75.8158 4.434C76.3478 4.966 76.6138 5.73133 76.6138 6.73V11H75.9138V6.786C75.9138 5.96467 75.7038 5.33933 75.2838 4.91C74.8731 4.48067 74.2945 4.266 73.5478 4.266C72.6891 4.266 72.0125 4.52267 71.5178 5.036C71.0231 5.54933 70.7758 6.24 70.7758 7.108V11H70.0758V0.611999H70.7758V5.218C71.0278 4.714 71.4011 4.32667 71.8958 4.056C72.3905 3.776 72.9738 3.636 73.6458 3.636ZM83.1217 10.538C82.9444 10.706 82.7204 10.8367 82.4497 10.93C82.1884 11.014 81.9131 11.056 81.6237 11.056C80.9891 11.056 80.4991 10.8833 80.1537 10.538C79.8084 10.1833 79.6357 9.69333 79.6357 9.068V4.294H78.2917V3.692H79.6357V2.096H80.3357V3.692H82.6597V4.294H80.3357V8.998C80.3357 9.474 80.4477 9.838 80.6717 10.09C80.9051 10.3327 81.2457 10.454 81.6937 10.454C82.1511 10.454 82.5291 10.3187 82.8277 10.048L83.1217 10.538ZM94.4935 10.356V11H87.7595V10.496L91.9035 6.38C92.4449 5.83867 92.8089 5.37667 92.9955 4.994C93.1915 4.602 93.2895 4.20067 93.2895 3.79C93.2895 3.16467 93.0749 2.67467 92.6455 2.32C92.2255 1.96533 91.6142 1.788 90.8115 1.788C90.1955 1.788 89.6542 1.88133 89.1875 2.068C88.7302 2.25467 88.3335 2.53933 87.9975 2.922L87.4935 2.474C87.8669 2.04467 88.3382 1.71333 88.9075 1.48C89.4862 1.24667 90.1395 1.13 90.8675 1.13C91.8289 1.13 92.5942 1.36333 93.1635 1.83C93.7329 2.29667 94.0175 2.92667 94.0175 3.72C94.0175 4.224 93.9055 4.70467 93.6815 5.162C93.4575 5.61933 93.0375 6.15133 92.4215 6.758L88.8095 10.356H94.4935ZM99.6255 11.07C98.8789 11.07 98.2115 10.8693 97.6235 10.468C97.0449 10.0573 96.5922 9.47867 96.2655 8.732C95.9482 7.98533 95.7895 7.108 95.7895 6.1C95.7895 5.092 95.9482 4.21467 96.2655 3.468C96.5922 2.72133 97.0449 2.14733 97.6235 1.746C98.2115 1.33533 98.8789 1.13 99.6255 1.13C100.372 1.13 101.035 1.33533 101.614 1.746C102.202 2.14733 102.654 2.72133 102.972 3.468C103.298 4.21467 103.462 5.092 103.462 6.1C103.462 7.108 103.298 7.98533 102.972 8.732C102.654 9.47867 102.202 10.0573 101.614 10.468C101.035 10.8693 100.372 11.07 99.6255 11.07ZM99.6255 10.412C100.242 10.412 100.783 10.244 101.25 9.908C101.726 9.56267 102.094 9.068 102.356 8.424C102.617 7.77067 102.748 6.996 102.748 6.1C102.748 5.204 102.617 4.434 102.356 3.79C102.094 3.13667 101.726 2.642 101.25 2.306C100.783 1.96067 100.242 1.788 99.6255 1.788C99.0095 1.788 98.4635 1.96067 97.9875 2.306C97.5209 2.642 97.1569 3.13667 96.8955 3.79C96.6342 4.434 96.5035 5.204 96.5035 6.1C96.5035 6.996 96.6342 7.77067 96.8955 8.424C97.1569 9.068 97.5209 9.56267 97.9875 9.908C98.4635 10.244 99.0095 10.412 99.6255 10.412ZM107.455 1.2V11H106.741V1.844H104.347V1.2H107.455ZM112.32 5.302C113.748 5.302 114.784 5.554 115.428 6.058C116.072 6.55267 116.394 7.25733 116.394 8.172C116.394 8.732 116.264 9.23133 116.002 9.67C115.75 10.0993 115.368 10.44 114.854 10.692C114.341 10.944 113.711 11.07 112.964 11.07C112.255 11.07 111.588 10.9487 110.962 10.706C110.346 10.4633 109.866 10.146 109.52 9.754L109.884 9.208C110.192 9.56267 110.617 9.852 111.158 10.076C111.709 10.3 112.306 10.412 112.95 10.412C113.828 10.412 114.5 10.2113 114.966 9.81C115.442 9.40867 115.68 8.872 115.68 8.2C115.68 7.46267 115.41 6.90267 114.868 6.52C114.336 6.13733 113.436 5.946 112.166 5.946H110.178L110.696 1.2H115.89V1.844H111.298L110.92 5.302H112.32ZM183.694 0.611999H184.352V13.716H183.694V0.611999ZM197.426 8.242H191.742L190.496 11H189.726L194.234 1.2H194.948L199.456 11H198.686L197.426 8.242ZM197.16 7.64L194.584 1.984L192.022 7.64H197.16ZM201.011 0.611999H201.711V11H201.011V0.611999ZM204.662 0.611999H205.362V11H204.662V0.611999ZM218.936 11L216.598 7.724C216.252 7.77067 215.935 7.794 215.646 7.794H212.846V11H212.132V1.2H215.646C216.878 1.2 217.844 1.494 218.544 2.082C219.244 2.66067 219.594 3.468 219.594 4.504C219.594 5.27867 219.393 5.932 218.992 6.464C218.6 6.98667 218.035 7.35533 217.298 7.57L219.748 11H218.936ZM215.646 7.164C216.691 7.164 217.489 6.93533 218.04 6.478C218.59 6.01133 218.866 5.35333 218.866 4.504C218.866 3.65467 218.59 3.00133 218.04 2.544C217.489 2.07733 216.691 1.844 215.646 1.844H212.846V7.164H215.646ZM221.984 3.692H222.684V11H221.984V3.692ZM222.334 1.914C222.175 1.914 222.04 1.86267 221.928 1.76C221.816 1.648 221.76 1.51267 221.76 1.354C221.76 1.19533 221.816 1.06 221.928 0.947999C222.04 0.836 222.175 0.78 222.334 0.78C222.493 0.78 222.628 0.836 222.74 0.947999C222.852 1.05067 222.908 1.18133 222.908 1.34C222.908 1.49867 222.852 1.634 222.74 1.746C222.628 1.858 222.493 1.914 222.334 1.914ZM232.214 3.692V10.216C232.214 11.4293 231.92 12.3253 231.332 12.904C230.744 13.4827 229.858 13.772 228.672 13.772C228 13.772 227.366 13.6693 226.768 13.464C226.171 13.2587 225.69 12.974 225.326 12.61L225.704 12.078C226.068 12.414 226.507 12.6753 227.02 12.862C227.534 13.0487 228.08 13.142 228.658 13.142C229.629 13.142 230.348 12.9087 230.814 12.442C231.281 11.9847 231.514 11.2707 231.514 10.3V9.068C231.216 9.6 230.8 10.0107 230.268 10.3C229.736 10.5893 229.139 10.734 228.476 10.734C227.795 10.734 227.174 10.5847 226.614 10.286C226.064 9.978 225.63 9.55333 225.312 9.012C224.995 8.47067 224.836 7.85933 224.836 7.178C224.836 6.49667 224.995 5.88533 225.312 5.344C225.63 4.80267 226.064 4.38267 226.614 4.084C227.174 3.78533 227.795 3.636 228.476 3.636C229.148 3.636 229.755 3.78533 230.296 4.084C230.838 4.38267 231.253 4.80267 231.542 5.344V3.692H232.214ZM228.532 10.104C229.102 10.104 229.615 9.98267 230.072 9.74C230.53 9.488 230.884 9.14267 231.136 8.704C231.398 8.256 231.528 7.74733 231.528 7.178C231.528 6.60867 231.398 6.10467 231.136 5.666C230.884 5.22733 230.53 4.88667 230.072 4.644C229.615 4.392 229.102 4.266 228.532 4.266C227.963 4.266 227.45 4.392 226.992 4.644C226.544 4.88667 226.19 5.22733 225.928 5.666C225.676 6.10467 225.55 6.60867 225.55 7.178C225.55 7.74733 225.676 8.256 225.928 8.704C226.19 9.14267 226.544 9.488 226.992 9.74C227.45 9.98267 227.963 10.104 228.532 10.104ZM238.747 3.636C239.662 3.636 240.385 3.902 240.917 4.434C241.449 4.966 241.715 5.73133 241.715 6.73V11H241.015V6.786C241.015 5.96467 240.805 5.33933 240.385 4.91C239.975 4.48067 239.396 4.266 238.649 4.266C237.791 4.266 237.114 4.52267 236.619 5.036C236.125 5.54933 235.877 6.24 235.877 7.108V11H235.177V0.611999H235.877V5.218C236.129 4.714 236.503 4.32667 236.997 4.056C237.492 3.776 238.075 3.636 238.747 3.636ZM248.223 10.538C248.046 10.706 247.822 10.8367 247.551 10.93C247.29 11.014 247.015 11.056 246.725 11.056C246.091 11.056 245.601 10.8833 245.255 10.538C244.91 10.1833 244.737 9.69333 244.737 9.068V4.294H243.393V3.692H244.737V2.096H245.437V3.692H247.761V4.294H245.437V8.998C245.437 9.474 245.549 9.838 245.773 10.09C246.007 10.3327 246.347 10.454 246.795 10.454C247.253 10.454 247.631 10.3187 247.929 10.048L248.223 10.538ZM252.023 11.056C251.435 11.056 250.875 10.9673 250.343 10.79C249.811 10.6127 249.396 10.3887 249.097 10.118L249.419 9.558C249.718 9.81 250.101 10.02 250.567 10.188C251.043 10.356 251.538 10.44 252.051 10.44C252.789 10.44 253.33 10.3187 253.675 10.076C254.03 9.83333 254.207 9.49733 254.207 9.068C254.207 8.76 254.109 8.51733 253.913 8.34C253.727 8.16267 253.493 8.032 253.213 7.948C252.933 7.864 252.546 7.77533 252.051 7.682C251.473 7.57933 251.006 7.46733 250.651 7.346C250.297 7.22467 249.993 7.02867 249.741 6.758C249.489 6.48733 249.363 6.114 249.363 5.638C249.363 5.05933 249.601 4.58333 250.077 4.21C250.563 3.82733 251.249 3.636 252.135 3.636C252.602 3.636 253.064 3.70133 253.521 3.832C253.979 3.96267 254.352 4.13533 254.641 4.35L254.319 4.91C254.021 4.69533 253.68 4.532 253.297 4.42C252.915 4.308 252.523 4.252 252.121 4.252C251.44 4.252 250.927 4.378 250.581 4.63C250.236 4.882 250.063 5.21333 250.063 5.624C250.063 5.95067 250.161 6.20733 250.357 6.394C250.553 6.57133 250.791 6.70667 251.071 6.8C251.361 6.884 251.762 6.97733 252.275 7.08C252.845 7.18267 253.302 7.29467 253.647 7.416C254.002 7.528 254.301 7.71467 254.543 7.976C254.786 8.23733 254.907 8.59667 254.907 9.054C254.907 9.66067 254.655 10.146 254.151 10.51C253.647 10.874 252.938 11.056 252.023 11.056ZM267.485 11L265.147 7.724C264.801 7.77067 264.484 7.794 264.195 7.794H261.395V11H260.681V1.2H264.195C265.427 1.2 266.393 1.494 267.093 2.082C267.793 2.66067 268.143 3.468 268.143 4.504C268.143 5.27867 267.942 5.932 267.541 6.464C267.149 6.98667 266.584 7.35533 265.847 7.57L268.297 11H267.485ZM264.195 7.164C265.24 7.164 266.038 6.93533 266.589 6.478C267.139 6.01133 267.415 5.35333 267.415 4.504C267.415 3.65467 267.139 3.00133 266.589 2.544C266.038 2.07733 265.24 1.844 264.195 1.844H261.395V7.164H264.195ZM276.707 7.514H270.421C270.439 8.08333 270.584 8.592 270.855 9.04C271.125 9.47867 271.489 9.81933 271.947 10.062C272.413 10.3047 272.936 10.426 273.515 10.426C273.991 10.426 274.429 10.342 274.831 10.174C275.241 9.99667 275.582 9.74 275.853 9.404L276.259 9.866C275.941 10.2487 275.54 10.5427 275.055 10.748C274.579 10.9533 274.061 11.056 273.501 11.056C272.773 11.056 272.124 10.8973 271.555 10.58C270.985 10.2627 270.537 9.824 270.211 9.264C269.893 8.704 269.735 8.06467 269.735 7.346C269.735 6.63667 269.884 6.002 270.183 5.442C270.491 4.87267 270.911 4.42933 271.443 4.112C271.975 3.79467 272.572 3.636 273.235 3.636C273.897 3.636 274.49 3.79467 275.013 4.112C275.545 4.42 275.96 4.854 276.259 5.414C276.567 5.974 276.721 6.60867 276.721 7.318L276.707 7.514ZM273.235 4.252C272.721 4.252 272.259 4.36867 271.849 4.602C271.438 4.826 271.107 5.148 270.855 5.568C270.612 5.97867 270.472 6.44533 270.435 6.968H276.035C276.007 6.44533 275.867 5.97867 275.615 5.568C275.363 5.15733 275.031 4.83533 274.621 4.602C274.21 4.36867 273.748 4.252 273.235 4.252ZM280.734 11.056C280.146 11.056 279.586 10.9673 279.054 10.79C278.522 10.6127 278.107 10.3887 277.808 10.118L278.13 9.558C278.429 9.81 278.812 10.02 279.278 10.188C279.754 10.356 280.249 10.44 280.762 10.44C281.5 10.44 282.041 10.3187 282.386 10.076C282.741 9.83333 282.918 9.49733 282.918 9.068C282.918 8.76 282.82 8.51733 282.624 8.34C282.438 8.16267 282.204 8.032 281.924 7.948C281.644 7.864 281.257 7.77533 280.762 7.682C280.184 7.57933 279.717 7.46733 279.362 7.346C279.008 7.22467 278.704 7.02867 278.452 6.758C278.2 6.48733 278.074 6.114 278.074 5.638C278.074 5.05933 278.312 4.58333 278.788 4.21C279.274 3.82733 279.96 3.636 280.846 3.636C281.313 3.636 281.775 3.70133 282.232 3.832C282.69 3.96267 283.063 4.13533 283.352 4.35L283.03 4.91C282.732 4.69533 282.391 4.532 282.008 4.42C281.626 4.308 281.234 4.252 280.832 4.252C280.151 4.252 279.638 4.378 279.292 4.63C278.947 4.882 278.774 5.21333 278.774 5.624C278.774 5.95067 278.872 6.20733 279.068 6.394C279.264 6.57133 279.502 6.70667 279.782 6.8C280.072 6.884 280.473 6.97733 280.986 7.08C281.556 7.18267 282.013 7.29467 282.358 7.416C282.713 7.528 283.012 7.71467 283.254 7.976C283.497 8.23733 283.618 8.59667 283.618 9.054C283.618 9.66067 283.366 10.146 282.862 10.51C282.358 10.874 281.649 11.056 280.734 11.056ZM291.746 7.514H285.46C285.479 8.08333 285.623 8.592 285.894 9.04C286.165 9.47867 286.529 9.81933 286.986 10.062C287.453 10.3047 287.975 10.426 288.554 10.426C289.03 10.426 289.469 10.342 289.87 10.174C290.281 9.99667 290.621 9.74 290.892 9.404L291.298 9.866C290.981 10.2487 290.579 10.5427 290.094 10.748C289.618 10.9533 289.1 11.056 288.54 11.056C287.812 11.056 287.163 10.8973 286.594 10.58C286.025 10.2627 285.577 9.824 285.25 9.264C284.933 8.704 284.774 8.06467 284.774 7.346C284.774 6.63667 284.923 6.002 285.222 5.442C285.53 4.87267 285.95 4.42933 286.482 4.112C287.014 3.79467 287.611 3.636 288.274 3.636C288.937 3.636 289.529 3.79467 290.052 4.112C290.584 4.42 290.999 4.854 291.298 5.414C291.606 5.974 291.76 6.60867 291.76 7.318L291.746 7.514ZM288.274 4.252C287.761 4.252 287.299 4.36867 286.888 4.602C286.477 4.826 286.146 5.148 285.894 5.568C285.651 5.97867 285.511 6.44533 285.474 6.968H291.074C291.046 6.44533 290.906 5.97867 290.654 5.568C290.402 5.15733 290.071 4.83533 289.66 4.602C289.249 4.36867 288.787 4.252 288.274 4.252ZM294.597 5.288C294.821 4.756 295.171 4.35 295.647 4.07C296.123 3.78067 296.702 3.636 297.383 3.636V4.322L297.215 4.308C296.403 4.308 295.769 4.56467 295.311 5.078C294.854 5.582 294.625 6.28667 294.625 7.192V11H293.925V3.692H294.597V5.288ZM305.506 3.692L302.202 11H301.488L298.198 3.692H298.94L301.852 10.23L304.792 3.692H305.506ZM313.006 7.514H306.72C306.738 8.08333 306.883 8.592 307.154 9.04C307.424 9.47867 307.788 9.81933 308.246 10.062C308.712 10.3047 309.235 10.426 309.814 10.426C310.29 10.426 310.728 10.342 311.13 10.174C311.54 9.99667 311.881 9.74 312.152 9.404L312.558 9.866C312.24 10.2487 311.839 10.5427 311.354 10.748C310.878 10.9533 310.36 11.056 309.8 11.056C309.072 11.056 308.423 10.8973 307.854 10.58C307.284 10.2627 306.836 9.824 306.51 9.264C306.192 8.704 306.034 8.06467 306.034 7.346C306.034 6.63667 306.183 6.002 306.482 5.442C306.79 4.87267 307.21 4.42933 307.742 4.112C308.274 3.79467 308.871 3.636 309.534 3.636C310.196 3.636 310.789 3.79467 311.312 4.112C311.844 4.42 312.259 4.854 312.558 5.414C312.866 5.974 313.02 6.60867 313.02 7.318L313.006 7.514ZM309.534 4.252C309.02 4.252 308.558 4.36867 308.148 4.602C307.737 4.826 307.406 5.148 307.154 5.568C306.911 5.97867 306.771 6.44533 306.734 6.968H312.334C312.306 6.44533 312.166 5.97867 311.914 5.568C311.662 5.15733 311.33 4.83533 310.92 4.602C310.509 4.36867 310.047 4.252 309.534 4.252ZM321.681 0.611999V11H320.995V9.278C320.706 9.84733 320.3 10.286 319.777 10.594C319.255 10.902 318.662 11.056 317.999 11.056C317.318 11.056 316.702 10.8973 316.151 10.58C315.601 10.2627 315.167 9.824 314.849 9.264C314.541 8.704 314.387 8.06467 314.387 7.346C314.387 6.62733 314.541 5.988 314.849 5.428C315.167 4.85867 315.601 4.42 316.151 4.112C316.702 3.79467 317.318 3.636 317.999 3.636C318.653 3.636 319.236 3.79 319.749 4.098C320.272 4.406 320.683 4.83533 320.981 5.386V0.611999H321.681ZM318.041 10.426C318.601 10.426 319.101 10.2953 319.539 10.034C319.987 9.77267 320.337 9.40867 320.589 8.942C320.851 8.47533 320.981 7.94333 320.981 7.346C320.981 6.74867 320.851 6.21667 320.589 5.75C320.337 5.28333 319.987 4.91933 319.539 4.658C319.101 4.39667 318.601 4.266 318.041 4.266C317.481 4.266 316.977 4.39667 316.529 4.658C316.091 4.91933 315.741 5.28333 315.479 5.75C315.227 6.21667 315.101 6.74867 315.101 7.346C315.101 7.94333 315.227 8.47533 315.479 8.942C315.741 9.40867 316.091 9.77267 316.529 10.034C316.977 10.2953 317.481 10.426 318.041 10.426Z" fill="#AEAEAE"/>
<path d="M125.669 10.538C125.491 10.706 125.267 10.8367 124.997 10.93C124.735 11.014 124.46 11.056 124.171 11.056C123.536 11.056 123.046 10.8833 122.701 10.538C122.355 10.1833 122.183 9.69333 122.183 9.068V4.294H120.839V3.692H122.183V2.096H122.883V3.692H125.207V4.294H122.883V8.998C122.883 9.474 122.995 9.838 123.219 10.09C123.452 10.3327 123.793 10.454 124.241 10.454C124.698 10.454 125.076 10.3187 125.375 10.048L125.669 10.538ZM131.191 3.636C132.105 3.636 132.829 3.902 133.361 4.434C133.893 4.966 134.159 5.73133 134.159 6.73V11H133.459V6.786C133.459 5.96467 133.249 5.33933 132.829 4.91C132.418 4.48067 131.839 4.266 131.093 4.266C130.234 4.266 129.557 4.52267 129.063 5.036C128.568 5.54933 128.321 6.24 128.321 7.108V11H127.621V0.611999H128.321V5.218C128.573 4.714 128.946 4.32667 129.441 4.056C129.935 3.776 130.519 3.636 131.191 3.636ZM143.228 7.514H136.942C136.961 8.08333 137.106 8.592 137.376 9.04C137.647 9.47867 138.011 9.81933 138.468 10.062C138.935 10.3047 139.458 10.426 140.036 10.426C140.512 10.426 140.951 10.342 141.352 10.174C141.763 9.99667 142.104 9.74 142.374 9.404L142.78 9.866C142.463 10.2487 142.062 10.5427 141.576 10.748C141.1 10.9533 140.582 11.056 140.022 11.056C139.294 11.056 138.646 10.8973 138.076 10.58C137.507 10.2627 137.059 9.824 136.732 9.264C136.415 8.704 136.256 8.06467 136.256 7.346C136.256 6.63667 136.406 6.002 136.704 5.442C137.012 4.87267 137.432 4.42933 137.964 4.112C138.496 3.79467 139.094 3.636 139.756 3.636C140.419 3.636 141.012 3.79467 141.534 4.112C142.066 4.42 142.482 4.854 142.78 5.414C143.088 5.974 143.242 6.60867 143.242 7.318L143.228 7.514ZM139.756 4.252C139.243 4.252 138.781 4.36867 138.37 4.602C137.96 4.826 137.628 5.148 137.376 5.568C137.134 5.97867 136.994 6.44533 136.956 6.968H142.556C142.528 6.44533 142.388 5.97867 142.136 5.568C141.884 5.15733 141.553 4.83533 141.142 4.602C140.732 4.36867 140.27 4.252 139.756 4.252ZM153.612 1.2V11H152.898V6.338H146.346V11H145.632V1.2H146.346V5.708H152.898V1.2H153.612ZM159.274 3.636C160.18 3.636 160.875 3.86933 161.36 4.336C161.846 4.79333 162.088 5.47 162.088 6.366V11H161.416V9.698C161.183 10.1273 160.842 10.4633 160.394 10.706C159.946 10.9393 159.41 11.056 158.784 11.056C157.972 11.056 157.328 10.8647 156.852 10.482C156.386 10.0993 156.152 9.59533 156.152 8.97C156.152 8.36333 156.367 7.87333 156.796 7.5C157.235 7.11733 157.93 6.926 158.882 6.926H161.388V6.338C161.388 5.65667 161.202 5.13867 160.828 4.784C160.464 4.42933 159.928 4.252 159.218 4.252C158.733 4.252 158.266 4.336 157.818 4.504C157.38 4.672 157.006 4.896 156.698 5.176L156.348 4.672C156.712 4.34533 157.151 4.09333 157.664 3.916C158.178 3.72933 158.714 3.636 159.274 3.636ZM158.882 10.482C159.489 10.482 160.002 10.342 160.422 10.062C160.852 9.782 161.174 9.376 161.388 8.844V7.472H158.896C158.178 7.472 157.655 7.60267 157.328 7.864C157.011 8.12533 156.852 8.48467 156.852 8.942C156.852 9.418 157.03 9.796 157.384 10.076C157.739 10.3467 158.238 10.482 158.882 10.482ZM174.072 3.636C174.978 3.636 175.687 3.902 176.2 4.434C176.723 4.966 176.984 5.73133 176.984 6.73V11H176.284V6.786C176.284 5.96467 176.084 5.33933 175.682 4.91C175.281 4.48067 174.721 4.266 174.002 4.266C173.181 4.266 172.528 4.52267 172.042 5.036C171.566 5.54933 171.328 6.24 171.328 7.108V11H170.628V6.786C170.628 5.96467 170.428 5.33933 170.026 4.91C169.625 4.48067 169.065 4.266 168.346 4.266C167.525 4.266 166.872 4.52267 166.386 5.036C165.91 5.54933 165.672 6.24 165.672 7.108V11H164.972V3.692H165.644V5.26C165.887 4.74667 166.246 4.35 166.722 4.07C167.208 3.78067 167.782 3.636 168.444 3.636C169.107 3.636 169.667 3.78533 170.124 4.084C170.591 4.38267 170.922 4.82133 171.118 5.4C171.361 4.85867 171.739 4.42933 172.252 4.112C172.775 3.79467 173.382 3.636 174.072 3.636Z" fill="#18CFAB"/>
</svg>
